{
  "count": 2993,
  "next": "https://cinematicket.org/api/v1/comment/comments/?page=2&thread=17746",
  "previous": null,
  "results": [
    {
      "id": 317807,
      "user": {
        "id": 3937932,
        "avatar": {
          "original": "https://static.cdn.asset.cinematicket.org/media/image/avatars/2022-07-21-16-26-49-532.jpeg",
          "webp": "https://static.cdn.asset.cinematicket.org/media/cache/6c/04/6c04e9c3f77e44e018007b11b4e703e3.webp"
        },
        "username": "user-zol3bjmj",
        "full_name": "ÙØ±Ø²Ø§Ù†Ù‡ Ø­Ø³ÛŒÙ†ÛŒ"
      },
      "text": "Ø®ÛŒÙ„ÛŒ Ø¹Ø§Ù„ÛŒ Ø¨ÙˆØ¯ .Ù…Ù…Ù†ÙˆÙ†Ù… Ø§Ø² Ø¢Ù‚Ø§ÛŒ Ø§ÙØ´Ø§Ø±ÛŒ Ø¨Ø§Ø¨Øª Ø¨Ø§Ø²ÛŒ Ø®ÙˆØ¨ØªÙˆÙ†",
      "created_at": "2023-09-25T11:47:49.101274Z",
      "likes_count": 6,
      "dislikes_count": 1,
      "replies_count": 0,
      "state": "approved",
      "thread": 17746,
      "replies": [],
      "like": null
    },
    {
      "id": 317686,
      "user": {
        "id": 3972325,
        "avatar": {
          "original": "None",
          "webp": "None"
        },
        "username": "user-g34r58sa",
        "full_name": "Ø³Ø§Ø±Ø¢ÛŒ"
      },
      "text": "ÙÛŒÙ„Ù… Ù‚Ø´Ù†Ú¯ÛŒ Ø¨ÙˆØ¯ Ø¨Ø±Ø§ÛŒ Ø®Ù†Ø¯ÛŒØ¯Ù† Ùˆ Ø§ÙØ³ÙˆØ³ Ø®ÙˆØ±Ø¯Ù† Ø¨Ø±Ø§ÛŒ Ø§ÛŒØ±Ø§Ù† Ø´Ø§Ø¯ Ú¯Ø°Ø´ØªÙ‡",
      "created_at": "2023-09-24T17:25:04.824491Z",
      "likes_count": 12,
      "dislikes_count": 3,
      "replies_count": 0,
      "state": "approved",
      "thread": 17746,
      "replies": [],
      "like": null
    },
    {
      "id": 317626,
      "user": {
        "id": 3477119,
        "avatar": {
          "original": "None",
          "webp": "None"
        },
        "username": "user-u5pk77kf",
        "full_name": "Ø§Ù„Ù‡Ù‡ ÙØ±ÛŒØ¯Ù†ÛŒ"
      },
      "text": "Ø®ÛŒÙ„ÛŒÛŒÛŒÛŒÛŒÛŒ Ø®ÙˆØ¨Ù‡Ù‡Ù‡Ù‡Ù‡ğŸ‘ŒğŸ»ğŸ‘ŒğŸ»",
      "created_at": "2023-09-24T07:16:19.946190Z",
      "likes_count": 7,
      "dislikes_count": 1,
      "replies_count": 0,
      "state": "approved",
      "thread": 17746,
      "replies": [],
      "like": null
    },
    {
      "id": 317614,
      "user": {
        "id": 1607390,
        "avatar": {
          "original": "None",
          "webp": "None"
        },
        "username": "user-ldcw0m4j",
        "full_name": "A.a"
      },
      "text": "Ú†Ø±Ø§ Ø§ÛŒÙ† ÙÛŒÙ„Ù… Ø¨Ø± Ù†Ù…ÛŒØ¯Ø§Ø±Ù† ØŸØŸØŸ!!!!",
      "created_at": "2023-09-23T23:29:08.663587Z",
      "likes_count": 8,
      "dislikes_count": 4,
      "replies_count": 0,
      "state": "approved",
      "thread": 17746,
      "replies": [],
      "like": null
    },
    {
      "id": 317570,
      "user": {
        "id": 3923022,
        "avatar": {
          "original": "https://static.cdn.asset.cinematicket.org/media/image/avatars/fantasy-44.jpeg",
          "webp": "https://static.cdn.asset.cinematicket.org/media/cache/15/14/1514c0bd3eff37cd37ea22d7eb920d3a.webp"
        },
        "username": "user-gp5oj8zr",
        "full_name": "Ø®Ø±Ú¯ÙˆØ´Ú©"
      },
      "text": "Ø³Ù„Ù„Ù… Ù…ÛŒØ´Ù‡ Ù‡Ù…ÛŒØ´Ù‡ Ø±Ùˆ Ù¾Ø±Ø¯Ù‡ Ø³ÛŒÙ†Ù…Ø§ Ø¨Ù…ÙˆÙ†Ù‡ğŸ¤£ğŸ˜‚ğŸ™",
      "created_at": "2023-09-23T14:01:50.403798Z",
      "likes_count": 8,
      "dislikes_count": 6,
      "replies_count": 0,
      "state": "approved",
      "thread": 17746,
      "replies": [],
      "like": null
    },
    {
      "id": 317423,
      "user": {
        "id": 3775025,
        "avatar": {
          "original": "None",
          "webp": "None"
        },
        "username": "user-tvef6i8v",
        "full_name": "Ù†ÛŒÙ„ÙˆÙØ± Ù…Ø­Ù…Ø¯Ø´Ø§Ù‡"
      },
      "text": "Ø®ÛŒÙ„ÛŒ Ø­Ø³ Ùˆ Ø­Ø§Ù„ Ø®ÙˆØ¨ÛŒ Ù…ÙˆÙ‚Ø¹ Ø¯ÛŒØ¯Ù†Ø´ Ø§ÛŒØ¬Ø§Ø¯ Ø´Ø¯. Ù‡Ù…ÛŒÙ† Ú©Ù‡ Ø¨Ø§Ø¹Ø« Ø´Ø¯ Ù‡Ù…Ù‡ Ø¯ÙˆØ± Ù‡Ù… Ø¨Ø®Ù†Ø¯ÛŒÙ… Ùˆ Ø¨Ø§ Ø­Ø³ Ùˆ Ø­Ø§Ù„ Ø®ÙˆØ¨ÛŒ Ø§Ø² Ø³ÛŒÙ†Ù…Ø§ Ø®Ø§Ø±Ø¬ Ø¨Ø´ÛŒÙ… ÛŒØ¹Ù†ÛŒ Ø¨Ù‡ Ø¹Ù†ÙˆØ§Ù† ÛŒÙ‡ ÙÛŒÙ„Ù… Ù…ÙˆÙÙ‚ Ø¨ÙˆØ¯Ù‡. Ø§Ø±Ø²Ø´ Ú†Ù†Ø¯Ø¨Ø§Ø± Ø¯ÛŒØ¯Ù‡ Ø´Ø¯Ù† Ø±Ùˆ Ù‡Ù… Ø¯Ø§Ø±Ù‡ Ùˆ Ù¾Ø§ÛŒØ§Ù† Ø¨Ù†Ø¯ÛŒ Ø®ÙˆØ¨ÛŒ Ø¯Ø§Ø´Øª.",
      "created_at": "2023-09-22T12:34:41.501574Z",
      "likes_count": 9,
      "dislikes_count": 1,
      "replies_count": 0,
      "state": "approved",
      "thread": 17746,
      "replies": [],
      "like": null
    },
    {
      "id": 317287,
      "user": {
        "id": 3934967,
        "avatar": {
          "original": "None",
          "webp": "None"
        },
        "username": "user-s1l77srf",
        "full_name": "Ø¹Ù„ÛŒ ÙØµÛŒØ­ÛŒ"
      },
      "text": "ÙÛŒÙ„Ù…ÛŒ Ú©Ù‡ Û²Û¶Û° Ù…ÛŒÙ„ÛŒØ§Ø±Ø¯ ÙØ±ÙˆØ´ Ø¯Ø§Ø´ØªÙ‡ Ø¹Ø¬ÛŒØ¨Ù‡ Ø¨Ø±Ø§Ù… ÛŒÙ‡ Ø¹Ø¯Ù‡ Ù…ÛŒØ§Ù† Ù‡ÛŒØªØ´ Ù…ÛŒÚ©Ù†Ù† Ø¹Ù…ÙˆÙ… Ù…Ø±Ø¯Ù… Ø¨Ù‡ Ø§ÛŒÙ† ÙÛŒÙ„Ù… Ù†Ù…Ø±Ù‡ Û´.Ûµ Ø¯Ø§Ø¯Ù† Ø¯ÛŒÚ¯Ù‡ Ø¨Ø§ Ú†Ù‡ Ø±ÙˆÛŒÛŒ Ù…ÛŒØ§ÛŒÛŒØ¯ Ù…ÛŒÚ¯ÛŒÙ† Ø§Ø´ØºØ§Ù„ Ø¨ÙˆØ¯ Ùˆ... ØŸØŸØŸ Ø§Ø² Ù†Ø¸Ø± Ø®ÙˆØ¯Ù… ØªÙˆ Ø³Ø¨Ú© Ú©Ù…Ø¯ÛŒ ÛŒÙ‡ Ù¾Ù†Ø¬Ø±Ù‡ ÛŒ Ø¬Ø¯ÛŒØ¯ Ùˆ Ø¨Ø§Ø² Ú©Ø±Ø¯ Ø§ÛŒÙ† ÙÛŒÙ„Ù… Ú©Ù‡ ØªØ§ Ø³Ø§Ù„Ù‡Ø§ Ù…Ø´Ø§Ø¨Ù‡Ø´ Ù†Ù…ÛŒØ§Ø¯",
      "created_at": "2023-09-21T15:52:07.586305Z",
      "likes_count": 13,
      "dislikes_count": 3,
      "replies_count": 0,
      "state": "approved",
      "thread": 17746,
      "replies": [],
      "like": null
    },
    {
      "id": 317274,
      "user": {
        "id": 2598411,
        "avatar": {
          "original": "None",
          "webp": "None"
        },
        "username": "user-2xrbhlgb",
        "full_name": "â€¦"
      },
      "text": "Ø§ØµÙ„Ø§ ÙÛŒÙ„Ù… Ø®ÙˆØ¨ÛŒ Ù†Ø¨ÙˆØ¯",
      "created_at": "2023-09-21T14:56:02.048713Z",
      "likes_count": 3,
      "dislikes_count": 20,
      "replies_count": 0,
      "state": "approved",
      "thread": 17746,
      "replies": [],
      "like": null
    },
    {
      "id": 317273,
      "user": {
        "id": 1272211,
        "avatar": {
          "original": "None",
          "webp": "None"
        },
        "username": "user-rnv8ftq6",
        "full_name": "reza nowroozi"
      },
      "text": "ÛŒÙ‡ ÙÛŒÙ„Ù… Ø¯Ø§ØºÙˆÙ† Ú©Ù‡ Ù…Ø¹Ù„ÙˆÙ…Ù‡ Ø¨Ø§ Ø§Ù…ØªÛŒØ§Ø² Ø³Ø§Ø²ÛŒ Ø¨Ù‡ Ø§ÛŒÙ† Ø§Ù…ØªÛŒØ§Ø² Û´.Ûµ Ø±Ø³ÛŒØ¯Ù‡",
      "created_at": "2023-09-21T14:53:04.691513Z",
      "likes_count": 3,
      "dislikes_count": 19,
      "replies_count": 1,
      "state": "approved",
      "thread": 17746,
      "replies": [
        {
          "id": 317766,
          "user": {
            "id": 469399,
            "avatar": {
              "original": "None",
              "webp": "None"
            },
            "username": "user-aygalzr6",
            "full_name": "Ø¹Ù…Ø§Ø¯ Ø¸Ù‡ÛŒØ±ÛŒ"
          },
          "text": "ÙØ±ÙˆØ´Ø´ Ù‡Ù… Ø­ØªÙ…Ø§Ù‹ Ø®ÛŒÙ„ÛŒ Ø§ØªÙØ§Ù‚ÛŒ Ø¨Ø§ Ø§Ø®ØªÙ„Ø§Ù Ø§ÙˆÙ„Ù‡ ØŸ",
          "created_at": "2023-09-25T09:02:24.976270Z",
          "likes_count": 12,
          "dislikes_count": 1,
          "replies_count": 0,
          "state": "approved",
          "thread": 17746,
          "replies": [],
          "like": null
        }
      ],
      "like": null
    },
    {
      "id": 317263,
      "user": {
        "id": 3957048,
        "avatar": {
          "original": "None",
          "webp": "None"
        },
        "username": "user-xqr34jgo",
        "full_name": "Ø§ÙˆÛŒÙ†Ø§ Ø§Ù‚Ø¨Ø§Ù„ÛŒ"
      },
      "text": "ÛŒÚ©ÛŒ Ø§Ø² Ù…Ø¹Ø±Ú©Ù‡ ØªØ±ÛŒÙ† ÙÛŒÙ„Ù…Ø§ÛŒÛŒ Ú©Ù‡ Ø¯ÛŒØ¯Ù… ÛŒØ¹Ù†ÛŒ Ø§ÛŒÙ†Ù‚Ø¯Ø± Ø®Ù†Ø¯ÛŒØ¯Ù… Ú©Ù‡ ØªÙ…Ø§Ù… Ø¹Ø¶Ù„Ø§Øª ØµÙˆØ±ØªÙ… Ø¯Ø±Ø¯ Ú¯Ø±ÙØªÙ‡ Ø¨ÙˆØ¯ Ø¨Ø¹Ø¯Ø§Ø² ÙÛŒÙ„Ù… .Ø¨Ø§Ø²Ù… Ù…ÛŒØ®Ø§Ù… Ø¨Ø±Ù… Ø¨Ø¨ÛŒÙ†Ù…",
      "created_at": "2023-09-21T13:14:24.758583Z",
      "likes_count": 10,
      "dislikes_count": 1,
      "replies_count": 0,
      "state": "approved",
      "thread": 17746,
      "replies": [],
      "like": null
    },
    {
      "id": 317248,
      "user": {
        "id": 3306957,
        "avatar": {
          "original": "None",
          "webp": "None"
        },
        "username": "user-jwz5kdmm",
        "full_name": "Ø³ÙˆÚ¯Ù†Ø¯ Ù‚Ø²Ù„ Ø§ÛŒØ§Ù‚"
      },
      "text": "Ø¹Ø§Ù„ÛŒÛŒÛŒÛŒÛŒÛŒÛŒÛŒÛŒÛŒÛŒÛŒÛŒ",
      "created_at": "2023-09-21T11:45:34.959154Z",
      "likes_count": 13,
      "dislikes_count": 0,
      "replies_count": 0,
      "state": "approved",
      "thread": 17746,
      "replies": [],
      "like": null
    },
    {
      "id": 317247,
      "user": {
        "id": 3828942,
        "avatar": {
          "original": "https://static.cdn.asset.cinematicket.org/media/image/avatars/1000009455.jpeg",
          "webp": "https://static.cdn.asset.cinematicket.org/media/cache/d5/03/d50311558a527c66f7ba38681a7f684c.webp"
        },
        "username": "user-cj1njxwa",
        "full_name": "Artina"
      },
      "text": "Ø§Ø² Ù†Ø¸Ø± Ù…Ù† Ú©Ù‡ Ø¹Ø§Ù„ÛŒ Ø¨ÙˆØ¯ ØªÙˆ Ø§ÛŒÙ† Ø¯ÙˆØ±Ù‡ Ú©Ù…Ø¯ÛŒ Ø®ÙˆØ¨ Ùˆ Ø³Ø§Ù„Ù… Ø³Ø§Ø®ØªÙ† Ø®ÛŒÙ„ÛŒ Ø¹Ø±Ø¶Ù‡ Ù…ÛŒØ®ÙˆØ§Ø¯",
      "created_at": "2023-09-21T11:39:42.691095Z",
      "likes_count": 10,
      "dislikes_count": 0,
      "replies_count": 0,
      "state": "approved",
      "thread": 17746,
      "replies": [],
      "like": null
    },
    {
      "id": 317221,
      "user": {
        "id": 3962117,
        "avatar": {
          "original": "None",
          "webp": "None"
        },
        "username": "user-fl5mq0oi",
        "full_name": "Ø­Ø³ÛŒÙ† ÙØ±Ø­Ù†Ø§Ú© Ø´Ù†Ø¯ÛŒ"
      },
      "text": "Ø§Ø² Ù„Ø­Ø§Ø¸ Ù…ØªÙ† Ù†ÙˆÛŒØ³Ù†Ø¯Ù‡ Ù…ÛŒØ´Ù‡ Ú¯ÙØª Ø®ÙˆØ¨ Ø¨ÙˆØ¯ ÙˆÙ„ÛŒ Ø§Ø² Ù„Ø­Ø§Ø¸ Ø¬Ù„ÙˆÙ‡Ø§ Ùˆ Ø·Ø±Ø§Ø­ÛŒ ØµØ­Ù†Ù‡ Ø¶Ø¹ÛŒÙ Ø¨ÛŒÙ†Ù†Ø¯Ù‡ Ø±Ùˆ Ú¯ÛŒØ¬ Ù…ÛŒÚ©Ø±Ø¯",
      "created_at": "2023-09-21T08:07:48.080093Z",
      "likes_count": 0,
      "dislikes_count": 10,
      "replies_count": 0,
      "state": "approved",
      "thread": 17746,
      "replies": [],
      "like": null
    },
    {
      "id": 317191,
      "user": {
        "id": 1485521,
        "avatar": {
          "original": "https://static.cdn.asset.cinematicket.org/media/image/avatars/Picsart_22-08-14_12-04-13-075.jpeg",
          "webp": "https://static.cdn.asset.cinematicket.org/media/cache/91/a7/91a7d5d4d6833c49717ef56fe395ba51.webp"
        },
        "username": "user-q2fwjdu6",
        "full_name": "HESAM.hjm"
      },
      "text": "Ø¨Ø¹Ø¶ÛŒ Ø§Ø² Ø¨Ø®Ø´Ù‡Ø§ÛŒ Ø·Ù†Ø² ÙÛŒÙ„Ù… Ø¨Ù†Ø¸Ø±Ù… Ø¬Ø§Ù„Ø¨ Ú©Ù‡ Ù‡ÛŒÚ† Ø¨ÛŒØ´ØªØ± Ø¢Ø²Ø§Ø±Ø¯Ù‡Ù†Ø¯Ù‡ Ø¨ÙˆØ¯",
      "created_at": "2023-09-20T21:25:09.925789Z",
      "likes_count": 0,
      "dislikes_count": 9,
      "replies_count": 0,
      "state": "approved",
      "thread": 17746,
      "replies": [],
      "like": null
    },
    {
      "id": 317142,
      "user": {
        "id": 1533411,
        "avatar": {
          "original": "None",
          "webp": "None"
        },
        "username": "user-1unh7u4x",
        "full_name": "Me"
      },
      "text": "Ø§Ù‚Ø§ÛŒ Ø§ÙØ´Ø§Ø±ÛŒ Ø´Ù…Ø§ Ù„Ø§ÛŒÙ‚ Ø¨Ù‡ØªØ±ÛŒÙ† Ù‡Ø§ Ù‡Ø³ØªÛŒØ¯ :) ÛŒ Ø¨Ø§Ø²ÛŒÚ¯Ø± Ø¨Ù‡ ØªÙ…Ø§Ù… Ù…Ø¹Ù†Ø§ !",
      "created_at": "2023-09-20T15:06:09.166560Z",
      "likes_count": 9,
      "dislikes_count": 0,
      "replies_count": 0,
      "state": "approved",
      "thread": 17746,
      "replies": [],
      "like": null
    },
    {
      "id": 317130,
      "user": {
        "id": 3951144,
        "avatar": {
          "original": "None",
          "webp": "None"
        },
        "username": "user-f43jbfon",
        "full_name": "Ù†ÙØ³"
      },
      "text": "ÙˆØ§ÛŒ ÙØ³ÛŒÙ„ Ø¹Ø§Ù„ÛŒ Ø¨ÙˆØ¯ Ø¹Ø§Ù„ÛŒ Ø­ØªÙ…Ø§ ØªÙˆ Ø³ÛŒÙ†Ù…Ø§ Ø¨Ø¨ÛŒÙ†ÛŒØ¯",
      "created_at": "2023-09-20T13:28:54.586356Z",
      "likes_count": 6,
      "dislikes_count": 0,
      "replies_count": 0,
      "state": "approved",
      "thread": 17746,
      "replies": [],
      "like": null
    },
    {
      "id": 317050,
      "user": {
        "id": 3862052,
        "avatar": {
          "original": "None",
          "webp": "None"
        },
        "username": "user-q6h5fs51",
        "full_name": "Ø§Ù‡ÙˆØ±Ø§ Ù…Ø­Ù…Ø¯ÛŒ"
      },
      "text": "Ø³Ù„Ø§Ù… Ø®ÙˆØ§Ù‡Ø´ Ù…ÛŒÚ©Ù†Ù… ÙÛŒÙ„Ù… Ø¢Ù‡Ù†Ú¯ Ø¯Ùˆ Ù†ÙØ±Ù‡ Ø±Ùˆ Ù‡Ù… Ø§Ú©Ø±Ø§Ù† Ú©Ù†ÛŒØ¯",
      "created_at": "2023-09-19T21:30:14.494866Z",
      "likes_count": 2,
      "dislikes_count": 1,
      "replies_count": 2,
      "state": "approved",
      "thread": 17746,
      "replies": [
        {
          "id": 317552,
          "user": {
            "id": 3395116,
            "avatar": {
              "original": "None",
              "webp": "None"
            },
            "username": "user-lnyrnq6q",
            "full_name": "Amirali farahani"
          },
          "text": "Ø§Ù„Ø§Ù† Ø¯Ø±Ø­Ø§Ù„ Ø§Ú©Ø±Ø§Ù†ØŒØ±ÙˆÛŒ Ø¨Ø®Ø´ Ù†Ù…Ø§ÛŒØ´ Ù‡Ù…Ù‡ Ú©Ù„ÛŒÚ© Ú©Ù†ÛŒØ¯ Ùˆ Ù…ÛŒØªÙˆÙ†ÛŒØ¯ Ø¢Ù†Ø¬Ø§ Ø¨Ø¨ÛŒÙ†ÛŒØ¯ ÙÛŒÙ„Ù… Ø±Ùˆ Ùˆ Ø±Ø²Ø±Ùˆ Ú©Ù†ÛŒØ¯",
          "created_at": "2023-09-23T11:03:40.938992Z",
          "likes_count": 1,
          "dislikes_count": 0,
          "replies_count": 0,
          "state": "approved",
          "thread": 17746,
          "replies": [],
          "like": null
        },
        {
          "id": 317083,
          "user": {
            "id": 3321237,
            "avatar": {
              "original": "None",
              "webp": "None"
            },
            "username": "user-5af6v3oc",
            "full_name": "Ù…Ø­Ù…Ø¯"
          },
          "text": "Ø§Ù„Ø§Ù† Ø§Ú©Ø±Ø§Ù† Ù†Ù…ÛŒØ´Ù‡ Ø§Ø­ØªÙ…Ø§Ù„Ø§ Ø¨Ø²ÙˆØ¯ÛŒ Ø§Ú©Ø±Ø§Ù† Ø¢Ù†Ù„Ø§ÛŒÙ† Ù…ÛŒ Ú©Ù†Ù†Ù†",
          "created_at": "2023-09-20T07:35:35.723235Z",
          "likes_count": 4,
          "dislikes_count": 1,
          "replies_count": 0,
          "state": "approved",
          "thread": 17746,
          "replies": [],
          "like": null
        }
      ],
      "like": null
    },
    {
      "id": 317024,
      "user": {
        "id": 1553940,
        "avatar": {
          "original": "None",
          "webp": "None"
        },
        "username": "user-aq288rri",
        "full_name": "Ù…Ø­Ù…Ø¯ Ø¬ÙˆØ§Ø¯"
      },
      "text": "Ø§Ù†Ù‚Ø¯Ø± Ù…Ø§ Ø¨Ø§ Ø§ÛŒÙ† ÙÛŒÙ„Ù… Ø¨Ù„Ù†Ø¯ Ø¨Ù„Ù†Ø¯ Ø®Ù†Ø¯ÛŒØ¯ÛŒÙ… Ú©Ù‡ ÙÙ‚Ø· ØµØ¯Ø§ÛŒ Ø®ÙˆØ¯Ù…ÙˆÙ† Ø±Ùˆ Ù…ÛŒØ´Ù†ÛŒØ¯ÛŒÙ….ÙÛŒÙ„Ù… Ø¨Ø§ Ø§ÛŒÙ†Ú©Ù‡ Ø¯Ø§Ø³ØªØ§Ù† Ø®ÛŒÙ„ÛŒ Ø®Ø§ØµÛŒ Ù†Ø¯Ø§Ø´Øª Ø§Ù…Ø§ Ù…Ø§ Ø§Ù†Ù‚Ø¯Ø± Ø¨Ø§Ù‡Ø§Ø´ Ø­Ø§Ù„ Ú©Ø±Ø¯ÛŒÙ… Ùˆ Ù„Ø°Øª Ø¨Ø±Ø¯ÛŒÙ… Ú©Ù‡ Ø§Ù„Ø§Ù† Ø¨Ø§ Ø§ÛŒÙ†Ú©Ù‡ Ú©Ø±Ø§ÛŒÙ‡ Ø¨Ø±Ú¯Ø´Øª Ù†Ø¯Ø§Ø±ÛŒÙ… Ùˆ Ø¨Ø±Ø§ÛŒ Ø±Ø³ÛŒØ¯Ù† Ø¨Ù‡ Ø®ÙˆÙ†Ù‡ Ø¨Ø§ÛŒØ¯ 24 Ú©ÛŒÙ„ÙˆÙ…ØªØ± Ù¾ÛŒØ§Ø¯Ù‡ Ø¨Ø±ÛŒÙ… Ø§Ù…Ø§ Ø¨Ø§Ø²Ù… Ø´Ø§Ø¯ÛŒÙ… Ùˆ Ø´Ø¨Ù…ÙˆÙ† ØªÚ©Ù…ÛŒÙ„ Ø´Ø¯Ù‡.Ù…Ù…Ù†ÙˆÙ† Ø§Ø² Ù‡Ù…Ù‡ Ø³Ø§Ø²Ù†Ø¯Ú¯Ø§Ù†",
      "created_at": "2023-09-19T18:32:59.311223Z",
      "likes_count": 24,
      "dislikes_count": 1,
      "replies_count": 2,
      "state": "approved",
      "thread": 17746,
      "replies": [
        {
          "id": 317312,
          "user": {
            "id": 3556743,
            "avatar": {
              "original": "None",
              "webp": "None"
            },
            "username": "user-0e62w6yo",
            "full_name": "Ù…Ø­Ù…Ø¯ Ø±Ø¶Ø§ Ù†ÛŒÚ©Ø¯Ø§Ù†"
          },
          "text": "Ø±Ø§Ø³Øª Ù…ÛŒÚ¯ÛŒ ÙˆØ§Ù‚Ø¹Ø§ğŸ˜",
          "created_at": "2023-09-21T19:21:51.443863Z",
          "likes_count": 0,
          "dislikes_count": 0,
          "replies_count": 0,
          "state": "approved",
          "thread": 17746,
          "replies": [],
          "like": null
        },
        {
          "id": 317257,
          "user": {
            "id": 3964549,
            "avatar": {
              "original": "None",
              "webp": "None"
            },
            "username": "user-bv481xxx",
            "full_name": "Ø´ Ø´"
          },
          "text": "Ø´Ù…Ø§ Ù‡Ø§ Ù¾ÙˆÙ„ Ø¯Ø§Ø¯Ù‡ Ø¨ÙˆØ¯ÛŒÙ† ØªÙ…Ø§Ù… Ø§Ø³ØªÙØ§Ø¯Ù‡ Ø±Ùˆ Ø§Ø² Ù¾ÙˆÙ„ØªÙˆÙ† Ø¨Ø±Ø¯ÛŒØ¯ Ø¯ÛŒÚ¯Ù‡ .",
          "created_at": "2023-09-21T12:34:11.123575Z",
          "likes_count": 0,
          "dislikes_count": 0,
          "replies_count": 0,
          "state": "approved",
          "thread": 17746,
          "replies": [],
          "like": null
        }
      ],
      "like": null
    },
    {
      "id": 316981,
      "user": {
        "id": 3580125,
        "avatar": {
          "original": "None",
          "webp": "None"
        },
        "username": "user-4mn5adr5",
        "full_name": "Ø³Ø§Ø±Ø§ Ø²Ø§Ø±Ø¹ÛŒ"
      },
      "text": "Ø®ÛŒÙ„ÛŒ Ù‚Ø´Ù†Ú¯ Ø¨ÙˆØ¯ Ø­ØªÙ…Ø§  Ø¨Ø±ÛŒØ¯ Ø¨Ø¨ÛŒÙ†ÛŒØ¯",
      "created_at": "2023-09-19T13:37:47.280474Z",
      "likes_count": 17,
      "dislikes_count": 0,
      "replies_count": 0,
      "state": "approved",
      "thread": 17746,
      "replies": [],
      "like": null
    },
    {
      "id": 316978,
      "user": {
        "id": 3946884,
        "avatar": {
          "original": "None",
          "webp": "None"
        },
        "username": "user-3qboizbn",
        "full_name": "Ø¹Ù„ÛŒØ±Ø¶Ø§ ØµÙØ±ÛŒ"
      },
      "text": "ÙÛŒÙ„Ù… Ù‚Ø´Ù†Ú¯ÛŒ Ø¨ÙˆØ¯",
      "created_at": "2023-09-19T13:00:18.332304Z",
      "likes_count": 11,
      "dislikes_count": 0,
      "replies_count": 0,
      "state": "approved",
      "thread": 17746,
      "replies": [],
      "like": null
    }
  ]
}
{
    "count":2993,
    "next":"https://cinematicket.org/api/v1/comment/comments/?page=3&thread=17746",
    "previous":"https://cinematicket.org/api/v1/comment/comments/?thread=17746",
    "results":[
        {"id":316950,"user":{"id":2869580,"avatar":{"original":"None","webp":"None"},"username":"user-w8lszigt","full_name":"ÙØ§Ø·Ù…Ù‡"},"text":"ÙÙˆÙ‚ Ø§Ù„Ø¹Ø§Ø¯Ù‡Ù‡Ù‡Ù‡","created_at":"2023-09-19T11:28:21.232098Z","likes_count":10,"dislikes_count":0,"replies_count":0,"state":"approved","thread":17746,"replies":[],"like":null},{"id":316898,"user":{"id":1844229,"avatar":{"original":"None","webp":"None"},"username":"user-86k71zys","full_name":"Ú©Ø§Ù…Ù„ÛŒØ§ Ø­Ø¯Ø§Ø¯ÛŒ"},"text":"Ø¹Ø§Ù„ÛŒ Ø¹Ø§Ù„ÛŒâ¤â¤","created_at":"2023-09-18T22:05:27.803269Z","likes_count":10,"dislikes_count":0,"replies_count":0,"state":"approved","thread":17746,"replies":[],"like":null},{"id":316860,"user":{"id":2669342,"avatar":{"original":"None","webp":"None"},"username":"user-49q28jdf","full_name":"Ù„ÛŒÙ„Ø§ Ø¬Ù…Ø§Ù„ÛŒ"},"text":"Ø¨Ø¹Ø¯ Ø§Ø² 6Ù…Ø§Ù‡ Ù‚Ø±Ø§Ø± Ù†ÛŒØ³Øª Ø§ÛŒÙ† ÙÛŒÙ„Ù… Ø¨Ø±Ø¯Ø§Ø´ØªÙ‡ Ø¨Ø´Ù‡ Ø¯Ø±Ø³ØªÙ‡ Ù‚Ø´Ù†Ú¯ Ø¨ÙˆØ¯ Ø§Ø³ØªÙ‚Ø¨Ø§Ù„ Ù‡Ù… Ø´Ø¯ ÙˆÙ„ÛŒ Ø¨Ø³Ù‡ Ø¯ÛŒÚ¯Ù‡ Ú†Ù‡ Ø®Ø¨Ø±Ù‡ 6Ù…Ø§Ø§Ø§Ø§Ù‡ .ÙˆØ§Ù‚Ø¹Ø§ Ø®ÙˆØ¯Ù…ÙˆÙ† Ù…ÛŒØ³ÙˆØ²Ù‡ Ú©Ù‡ Ù‡ÛŒÚ† ØªÙØ±ÛŒØ­ÛŒ Ù†Ø¯Ø§Ø±ÛŒÙ… Ø¨Ø¹Ø¯ ÛŒÙ‡ ØªÙØ±ÛŒØ­ Ø³ÛŒÙ†Ù…Ø§ Ù‡Ø³Øª Ú©Ù‡ Ù…Ø§Ø´Ø§Ù„Ø§ ÛŒÙ‡ ÙÛŒÙ„Ù… 6Ù…Ø§Ù‡ Ù…ÛŒÙ…ÙˆÙ†Ù‡ Ø±Ùˆ Ù¾Ø±Ø¯Ù‡","created_at":"2023-09-18T18:15:22.781709Z","likes_count":20,"dislikes_count":11,"replies_count":3,"state":"approved","thread":17746,"replies":[{"id":316985,"user":{"id":3204903,"avatar":{"original":"https://static.cdn.asset.cinematicket.org/media/image/avatars/Picsart_23-09-24_10-41-47-099.jpeg","webp":"https://static.cdn.asset.cinematicket.org/media/cache/3d/40/3d408c814aef48d851a3f59a0db12c40.webp"},"username":"user-290o6079","full_name":"Ø§Ù…ÛŒØ±"},"text":"ÙˆØ§Ù‚Ø¹Ø§ Ø±Ø§Ø³Øª Ù…ÛŒÚ¯ÛŒ Ø¨Ø³Ù‡ Ø¯ÛŒÚ¯Ù‡","created_at":"2023-09-19T13:49:36.103214Z","likes_count":7,"dislikes_count":9,"replies_count":0,"state":"approved","thread":17746,"replies":[],"like":null},{"id":317337,"user":{"id":1439087,"avatar":{"original":"None","webp":"None"},"username":"user-3t4frjne","full_name":"Ra"},"text":"Ø¯Ù‚ÛŒÙ‚Ø§","created_at":"2023-09-21T21:50:31.735476Z","likes_count":0,"dislikes_count":1,"replies_count":0,"state":"approved","thread":17746,"replies":[],"like":null},{"id":317258,"user":{"id":3964549,"avatar":{"original":"None","webp":"None"},"username":"user-bv481xxx","full_name":"Ø´ Ø´"},"text":"Ø´Ù…Ø§ ÙÛŒÙ„Ù… Ù‡Ø§ÛŒ Ø¯ÛŒÚ¯Ù‡ Ú©Ù‡ Ø§ÙˆÙ…Ø¯Ù‡ Ø±Ùˆ Ø¨Ø¨ÛŒÙ† . Ø§Ø³ØªÙ‚Ø¨Ø§Ù„ Ùˆ ÙØ±ÙˆØ´ Ù‡Ù…Ú†Ù†Ø§Ù† Ø¯Ø§Ø±Ù‡ Ú©Ù‡ Ø±Ùˆ Ù¾Ø±Ø¯Ù‡ Ù…ÙˆÙ†Ø¯Ù‡ Ø¯ÛŒÚ¯Ù‡","created_at":"2023-09-21T12:35:03.442448Z","likes_count":1,"dislikes_count":0,"replies_count":0,"state":"approved","thread":17746,"replies":[],"like":null}],"like":null},{"id":316845,"user":{"id":2270297,"avatar":{"original":"None","webp":"None"},"username":"user-2btxf5b9","full_name":"Ø­Ù…ÛŒØ¯"},"text":"Ø¯Ø§Ø³ØªØ§Ù† ÙÛŒÙ„Ù… Ø³Ù„ÛŒÙ‚Ù‡ Ø§ÛŒ Ø¨ÙˆØ¯ ÙˆÙ„ÛŒ Ù…Ù† Ø®ÙˆØ´Ù… Ø§ÙˆÙ…Ø¯","created_at":"2023-09-18T16:36:21.069284Z","likes_count":12,"dislikes_count":0,"replies_count":0,"state":"approved","thread":17746,"replies":[],"like":null},{"id":316824,"user":{"id":3852957,"avatar":{"original":"None","webp":"None"},"username":"user-rh2g3r16","full_name":"SPSH7222"},"text":"Ø¨Ù‡ Ù†Ø¸Ø± Ù…Ù† Ø§Ø±Ø²Ø´ Ø¯ÛŒØ¯Ù† Ø¯Ø§Ø´Øª","created_at":"2023-09-18T13:41:46.980450Z","likes_count":12,"dislikes_count":0,"replies_count":0,"state":"approved","thread":17746,"replies":[],"like":null},{"id":316821,"user":{"id":2787862,"avatar":{"original":"None","webp":"None"},"username":"user-2xx66e5b","full_name":"Ø§Ù…ÛŒØ± Ù…Ø­Ù…Ø¯ ÙØ±Ù‡Ø§Ø¯ÛŒ"},"text":"Ú©ÛŒ Ù…ÛŒÚ¯Ù† ÙØ³ÛŒÙ„ Ù‚Ø´Ù†Ú¯","created_at":"2023-09-18T13:40:18.651677Z","likes_count":14,"dislikes_count":6,"replies_count":0,"state":"approved","thread":17746,"replies":[],"like":null},{"id":316748,"user":{"id":1487094,"avatar":{"original":"None","webp":"None"},"username":"user-w6vxkkdx","full_name":"Ù…Ù‡Ù†Ø§Ø² Ú¯Ù„Ø±ÛŒØ²"},"text":"Ù†Ø¸Ø±Ø§Øª Ù…Ø«Ø¨Øª Ø±Ùˆ ÙÙ‚Ø· Ù†Ú¯Ù‡ Ù…ÛŒ Ø¯Ø§Ø±Ø¦Ø¯ØŸØŸØŸ","created_at":"2023-09-17T20:10:29.980355Z","likes_count":8,"dislikes_count":6,"replies_count":0,"state":"approved","thread":17746,"replies":[],"like":null},{"id":316747,"user":{"id":1487094,"avatar":{"original":"None","webp":"None"},"username":"user-w6vxkkdx","full_name":"Ù…Ù‡Ù†Ø§Ø² Ú¯Ù„Ø±ÛŒØ²"},"text":"Ø¢Ø´ØºØ§Ù„ØªØ±ÛŒÙ† ÙÛŒÙ„Ù…ÛŒ Ú©Ù‡ Ø§ØµÙ„Ø§ Ú©Ù…Ø¯ÛŒ Ù†Ø¨ÙˆØ¯ Ø­Ø§Ù„Ù… Ø¨Ø¯ Ø´Ø¯ Ø­ÛŒÙ ÙˆÙ‚ØªÛŒ Ú©Ù‡ Ú¯Ø°Ø§Ø´ØªÛŒÙ…","created_at":"2023-09-17T20:09:08.107467Z","likes_count":10,"dislikes_count":44,"replies_count":2,"state":"approved","thread":17746,"replies":[{"id":316807,"user":{"id":3647191,"avatar":{"original":"None","webp":"None"},"username":"user-bcvm05ve","full_name":"Ø³Ø§Ù…ÛŒ"},"text":"Ø§ØªÙØ§Ù‚Ø§ Ø¨Ù‡ØªØ±ÛŒÙ† ÙÛŒÙ„Ù… Ú©Ù…Ø¯ÛŒ Ø§ÛŒ Ø¨ÙˆØ¯ Ú©Ù‡ ØªØ§ Ø­Ø§Ù„Ø§ Ø¯ÛŒØ¯Ù…","created_at":"2023-09-18T11:43:03.145441Z","likes_count":23,"dislikes_count":6,"replies_count":1,"state":"approved","thread":17746,"replies":[],"like":null},{"id":317264,"user":{"id":3957048,"avatar":{"original":"None","webp":"None"},"username":"user-xqr34jgo","full_name":"Ø§ÙˆÛŒÙ†Ø§ Ø§Ù‚Ø¨Ø§Ù„ÛŒ"},"text":"Ù…Ø¹Ù„ÙˆÙ…Ù‡ Ú©Ù‡ Ø´Ù…Ø§ Ø±ÙˆØ­ÛŒÙ‡ ÛŒ Ø¯Ø§ØºÙˆÙ† ÙˆØ§ÙØ³Ø±Ø¯Ù‡ Ø§ÛŒ Ø¯Ø§Ø±ÛŒØ¯ Ú©Ù‡ Ø¨Ø§ ÙˆØ¬ÙˆØ¯ Ø§ÙˆÙ†Ù‡Ù…Ù‡ Ø·Ù†Ø²ÛŒ Ú©Ù‡ Ø¯Ø± ÙÛŒÙ„Ù… Ù‡Ø³Øª Ù„Ø°Øª Ù†Ø¨Ø±Ø¯ÛŒØ¯","created_at":"2023-09-21T13:17:13.494880Z","likes_count":1,"dislikes_count":0,"replies_count":0,"state":"approved","thread":17746,"replies":[],"like":null}],"like":null},{"id":316744,"user":{"id":3721738,"avatar":{"original":"None","webp":"None"},"username":"user-4xqj6kru","full_name":"Ø³Ø§Ø±Ù‡ Ø¬Ù„Ø§Ù„ÛŒ"},"text":"Ù…ÛŒØ®ÙˆØ§Ù… Ø¨Ø±Ù… ÙÛŒÙ„Ù… Ø¨Ø¨ÛŒÙ†Ù… Ú©Ø¯ÙˆÙ… ÙÛŒÙ„Ù… Ø¨Ù‡ Ø¬Ø² ÙØ³ÛŒÙ„ ÙˆØ¨ÛŒ Ù…Ø§Ø¯Ø± Ø±Ùˆ Ø¨Ø±Ù… Ú†ÙˆÙ† Ø§ÛŒÙ† Ø¯Ùˆ ØªØ§Ø±Ùˆ Ø±ÙØªÙ…","created_at":"2023-09-17T19:46:20.255695Z","likes_count":6,"dislikes_count":0,"replies_count":2,"state":"approved","thread":17746,"replies":[{"id":317082,"user":{"id":2787862,"avatar":{"original":"None","webp":"None"},"username":"user-2xx66e5b","full_name":"Ø§Ù…ÛŒØ± Ù…Ø­Ù…Ø¯ ÙØ±Ù‡Ø§Ø¯ÛŒ"},"text":"Ø´Ù‡Ø± Ù‡Ø±Øª Ø¨Ø±Ùˆ Ø®ÛŒÙ„ÛŒ Ø®Ù†Ø¯Ù‡ Ø¯Ø§Ø± Ø¨ÙˆØ¯","created_at":"2023-09-20T07:26:29.007332Z","likes_count":0,"dislikes_count":0,"replies_count":0,"state":"approved","thread":17746,"replies":[],"like":null},{"id":316998,"user":{"id":3297932,"avatar":{"original":"None","webp":"None"},"username":"user-4i2ocduk","full_name":"Ø§Ù…ÛŒØ±Ø­Ø³ÛŒÙ† Ù…ÛŒÙ†Ø§Ù¾ÙˆØ±"},"text":"Ø´Ù‡Ø± Ù‡Ø±Øª Ùˆ Ø³ØªØ§Ø±Ù‡ Ø¨Ø§Ø²ÛŒ","created_at":"2023-09-19T14:47:23.430927Z","likes_count":1,"dislikes_count":5,"replies_count":0,"state":"approved","thread":17746,"replies":[],"like":null}],"like":null},{"id":316743,"user":{"id":3721738,"avatar":{"original":"None","webp":"None"},"username":"user-4xqj6kru","full_name":"Ø³Ø§Ø±Ù‡ Ø¬Ù„Ø§Ù„ÛŒ"},"text":"Ù…ÛŒØ®ÙˆØ§Ù… Ø¨Ø±Ù… ÙÛŒÙ„Ù… Ø¨Ø¨ÛŒÙ†Ù… Ú©Ø¯ÙˆÙ… ÙÛŒÙ„Ù… Ø¨Ù‡ Ø¬Ø² ÙØ³ÛŒÙ„ ÙˆØ¨ÛŒ Ù…Ø§Ø¯Ø± Ø±Ùˆ Ø¨Ø±Ù… Ú†ÙˆÙ† Ø§ÛŒÙ† Ø¯Ùˆ ØªØ§Ø±Ùˆ Ø±ÙØªÙ…","created_at":"2023-09-17T19:45:42.394003Z","likes_count":1,"dislikes_count":1,"replies_count":3,"state":"approved","thread":17746,"replies":[{"id":316816,"user":{"id":2674703,"avatar":{"original":"None","webp":"None"},"username":"user-f8oen8xe","full_name":"Ú©Ø³Ø±ÛŒ Ø´Ø§ÛŒØ³ØªÙ‡"},"text":"Ù†Ú¯Ù‡Ø¨Ø§Ù† Ø´Ø¨ ØŒ Ø¢Ø®Ø±ÛŒÙ† ØªÙˆÙ„Ø¯ \nØ¨Ø¹Ø¯ Ø§Ø² Ø§ÛŒÙ† Ø¯Ùˆ ØªØ§ Ú©Øª Ú†Ø±Ù…ÛŒ","created_at":"2023-09-18T13:12:15.384096Z","likes_count":2,"dislikes_count":0,"replies_count":0,"state":"approved","thread":17746,"replies":[],"like":null},{"id":316855,"user":{"id":1366197,"avatar":{"original":"None","webp":"None"},"username":"user-y4qe6ar0","full_name":"Ø¹Ù„ÛŒ ÙÙ‡Ø§Ù…ÛŒ"},"text":"Ø´Ù‡Ø± Ù‡Ø±Øª ÛŒØ§ Ù…ØµÙ„Ø­Øª","created_at":"2023-09-18T17:59:57.903277Z","likes_count":1,"dislikes_count":2,"replies_count":0,"state":"approved","thread":17746,"replies":[],"like":null},{"id":316786,"user":{"id":3544716,"avatar":{"original":"None","webp":"None"},"username":"user-51ailzbi","full_name":"Ú©ÛŒÙ…ÛŒØ§"},"text":"ÙÛŒÙ„Ù… Ù…ØµÙ„Ø­Øª Ø®ÛŒÙ„ÛŒ Ø®ÙˆØ¨ Ø¨ÙˆØ¯","created_at":"2023-09-18T07:43:15.915216Z","likes_count":4,"dislikes_count":1,"replies_count":0,"state":"approved","thread":17746,"replies":[],"like":null}],"like":null},{"id":316733,"user":{"id":3570978,"avatar":{"original":"None","webp":"None"},"username":"user-hkcd7vve","full_name":"Ù…Ø±ÛŒÙ… Ø§Ø­Ù…Ø¯ÛŒ"},"text":"ÙÛŒÙ„Ù… Ø®ÛŒÙ„ÛŒ Ø®ÙˆØ¨ÛŒ Ø¨ÙˆØ¯ Ù…Ù† Ø¨Ø§ Ø±ÙÛŒÙ‚Ù… Ø±ÙØªÙ… Ùˆ Ø®ÛŒÙ„ÛŒ Ø¨Ù‡Ù…ÙˆÙ† Ø®ÙˆØ´ Ú¯Ø°Ø´Øª Ù¾ÛŒØ´Ù†Ù‡Ø§Ø¯ Ù…ÛŒÚ©Ù†Ù… Ø­ØªÙ…Ø§ Ù†Ú¯Ø§Ù‡ Ú©Ù†ÛŒÙ†â¤ï¸","created_at":"2023-09-17T18:11:36.980292Z","likes_count":15,"dislikes_count":0,"replies_count":1,"state":"approved","thread":17746,"replies":[{"id":316856,"user":{"id":1366197,"avatar":{"original":"None","webp":"None"},"username":"user-y4qe6ar0","full_name":"Ø¹Ù„ÛŒ ÙÙ‡Ø§Ù…ÛŒ"},"text":"Ø±ÙÛŒÙ‚Øª Ø¯ÙˆØ³Øª Ø¯Ø§Ø´ØªØŸ!","created_at":"2023-09-18T18:00:44.337269Z","likes_count":2,"dislikes_count":0,"replies_count":0,"state":"approved","thread":17746,"replies":[],"like":null}],"like":null},{"id":316725,"user":{"id":3648268,"avatar":{"original":"None","webp":"None"},"username":"user-motz3dua","full_name":"Ù„Ø§Ù†Ø§"},"text":"ÛŒÙ‡ Ø´Ø§Ù‡Ú©Ø§Ø± Ø¨Ù‡ ØªÙ…Ø§Ù… Ù…Ø¹Ù†Ø§ Ù†Ø¨ÙˆØ¯ ÙˆÙ„ÛŒ Ø¬Ø§Ù„Ø¨ Ùˆ Ø³Ø±Ú¯Ø±Ù… Ú©Ù†Ù†Ø¯Ù‡ Ø¨ÙˆØ¯ Ø¨ÛŒØ´ØªØ± Ø§Ø² ÛŒÚ© Ø¨Ø§Ø±Ù… Ø§Ø±Ø²Ø´ Ø¯ÛŒØ¯Ù† Ù†Ø¯Ø§Ø±Ù‡","created_at":"2023-09-17T16:58:28.817497Z","likes_count":2,"dislikes_count":14,"replies_count":0,"state":"approved","thread":17746,"replies":[],"like":null},{"id":316724,"user":{"id":3846249,"avatar":{"original":"None","webp":"None"},"username":"user-7es6lvmw","full_name":"Ø±Ø¶Ø§ Ù…Ø¸Ø§Ù‡Ø±ÛŒ"},"text":"Ø¹Ø§Ù„ÛŒ Ø¨ÙˆØ¯ Ù…Ù…Ù†ÙˆÙ† Ø´Ù…Ø§ Ù‡Ù… Ø¨Ø±ÛŒØ¯ Ø¨Ø¨ÛŒÙ†ÛŒØ¯","created_at":"2023-09-17T16:51:53.548428Z","likes_count":9,"dislikes_count":3,"replies_count":0,"state":"approved","thread":17746,"replies":[],"like":null},{"id":316720,"user":{"id":3544083,"avatar":{"original":"None","webp":"None"},"username":"user-hx7dw5x9","full_name":"â€Œ"},"text":"Ø¨Ø³ÛŒØ§Ø± Ø¹Ø§Ù„ÛŒ","created_at":"2023-09-17T16:11:48.718070Z","likes_count":9,"dislikes_count":2,"replies_count":0,"state":"approved","thread":17746,"replies":[],"like":null},{"id":316692,"user":{"id":2949369,"avatar":{"original":"None","webp":"None"},"username":"user-u7eork8f","full_name":"â¤ğŸ§¡ğŸ’›ğŸ’šğŸ’™ğŸ’œ"},"text":"Ø§ØµÙ„Ø§ Ø¨Ø§Ù…Ø²Ù‡ Ù†Ø¨ÙˆØ¯ğŸ˜’ğŸ™„ Ø®ÙˆØ´Ù…ÙˆÙ† Ù†ÛŒÙˆÙ…Ø¯ ğŸ˜‘ğŸ˜‘","created_at":"2023-09-17T11:28:38.056395Z","likes_count":2,"dislikes_count":30,"replies_count":1,"state":"approved","thread":17746,"replies":[{"id":317502,"user":{"id":3951572,"avatar":{"original":"None","webp":"None"},"username":"user-bgz3imf1","full_name":"Ù….Ù¾.Ù"},"text":"Ø§Ù„Ø§Ù† Ø®Ø±Ù Ø´Ù…Ø§ Ø±Ùˆ Ø¨Ø§ÙˆØ± Ú©Ù†Ù… ÛŒØ§ ÙØ±ÙˆØ´ Û²ÛµÛ¸ Ù…ÛŒÙ„ÛŒØ§Ø±Ø¯ÛŒ Ø±ÙˆØŸ","created_at":"2023-09-22T20:24:36.294215Z","likes_count":1,"dislikes_count":0,"replies_count":0,"state":"approved","thread":17746,"replies":[],"like":null}],"like":null},{"id":316684,"user":{"id":1241788,"avatar":{"original":"None","webp":"None"},"username":"user-ivheh2xr","full_name":"Ø±Ø¶Ø§ ÙÙ„Ø§Ø­ Ø³ÛŒØ§ÙˆØ´ÛŒ Ù…ÙØ±Ø¯"},"text":"Ø®ÛŒÙ„ÛŒ Ø¨Ø¯ ÙˆÙ„ÛŒ Ø´Ù‡Ø±Ù‡Ø±Øª Ø¹Ø§Ù„ÛŒ Ø¨ÙˆØ¯","created_at":"2023-09-17T09:48:49.475054Z","likes_count":2,"dislikes_count":22,"replies_count":0,"state":"approved","thread":17746,"replies":[],"like":null},{"id":316681,"user":{"id":3941057,"avatar":{"original":"None","webp":"None"},"username":"user-x4636cib","full_name":"Ù‡Ø§Ø¯ÛŒ Ø§Ø¨Ø±Ø§Ù‡ÛŒÙ…ÛŒ"},"text":"Ø¨ Ú©Ø§Ø¯Ø± ÙÙ†ÛŒ Ùˆ ØªÙˆÙ„ÛŒØ¯ ÙÛŒÙ„Ù… Ø®Ø³ØªÙ‡ Ù†Ø¨Ø§Ø´ÛŒØ¯ Ù…ÛŒÚ¯Ù… â¤ï¸","created_at":"2023-09-17T09:04:59.336080Z","likes_count":13,"dislikes_count":3,"replies_count":0,"state":"approved","thread":17746,"replies":[],"like":null},{"id":316637,"user":{"id":3849123,"avatar":{"original":"None","webp":"None"},"username":"user-b321p4jb","full_name":"ÛŒÚ©ØªØ§ Ù¾Ø±ÙˆÛŒØ²ÛŒ"},"text":"Ù…Ù† Ø¹Ø§Ø´Ù‚Ø´Ù… ØªØ§ Ø­Ø§Ù„Ø§Û· Ø¨Ø§Ø± Ø±ÙØªÙ… Ùˆ Ø¯ÛŒØ¯Ù…","created_at":"2023-09-16T12:08:19.756527Z","likes_count":14,"dislikes_count":4,"replies_count":1,"state":"approved","thread":17746,"replies":[{"id":317923,"user":{"id":3974727,"avatar":{"original":"None","webp":"None"},"username":"user-5jdtwprc","full_name":"Ø­Ø³ÛŒÙ† Ú¯Ù„Ø³ØªØ§Ù†"},"text":"Ø®ÛŒÙ„ÛŒ Ø®ÙˆØ¨ Ø±ÙØªÛŒ","created_at":"2023-09-26T05:24:47.881442Z","likes_count":0,"dislikes_count":0,"replies_count":0,"state":"approved","thread":17746,"replies":[],"like":null}],"like":null},{"id":316630,"user":{"id":1234228,"avatar":{"original":"None","webp":"None"},"username":"user-c7hur9ey","full_name":"Ø´Ø¨Ù†Ù… Ù¾ÙˆÙ„Ø§Ø¯ÛŒ"},"text":"Ø®ÛŒÙ„ÛŒ Ù…Ø³Ø®Ø±Ù‡ Ø¨ÙˆØ¯ ÙÙ‚Ø· Ù…Ù†ØªØ¸Ø± Ø¨ÙˆØ¯ÛŒÙ… Ø²ÙˆØ¯ØªØ± ØªÙ…ÙˆÙ… Ø¨Ø´Ù‡","created_at":"2023-09-16T08:13:47.870633Z","likes_count":1,"dislikes_count":29,"replies_count":1,"state":"approved","thread":17746,"replies":[{"id":316699,"user":{"id":1754717,"avatar":{"original":"None","webp":"None"},"username":"user-uvpf3nnt","full_name":"Ú©Ø§ÙˆÙ‡ ØºÙ„Ø§Ù…ÛŒ"},"text":"Ø¯Ù‚ÛŒÙ‚Ø§","created_at":"2023-09-17T12:56:27.767349Z","likes_count":1,"dislikes_count":15,"replies_count":0,"state":"approved","thread":17746,"replies":[],"like":null}],"like":null},{"id":316623,"user":{"id":3935615,"avatar":{"original":"None","webp":"None"},"username":"user-g0uv15pz","full_name":"Ø±Ø¶Ø§"},"text":"Ø®ÛŒÙ„ÛŒ Ø®ÙˆØ¨ Ø¨ÙˆØ¯ Ø®ÛŒÙ„ÛŒ Ø®Ù†Ø¯ÛŒØ¯Ù… Ø§Ù…Ø§ Ø¯Ø®ØªØ±Ù… Ø¯ÙˆØ³Øª Ù†Ø¯Ø§Ø´Øª Ù…Ù†Ø§Ø³Ø¨ Ú©ÙˆØ¯Ú©Ø§Ù† Ù†Ø¨ÙˆØ¯ØŒ  Ø®ÛŒÙ„ÛŒ Ø¨Ø§Ø­Ø§Ù„ Ø¨ÙˆØ¯ Ù†Ø¨ÛŒÙ†ÛŒ Ø§Ø² Ø¯Ø³ØªØª Ø±ÙØªÙ‡ Ø§Ø³Øª","created_at":"2023-09-15T19:03:31.899998Z","likes_count":10,"dislikes_count":5,"replies_count":0,"state":"approved","thread":17746,"replies":[],"like":null}
    ]
}